%YAML 1.1
%TAG !u! tag:unity3d.com,2011:
--- !u!129 &1
PlayerSettings:
  m_ObjectHideFlags: 0
  serializedVersion: 17
  productGUID: 6f1c150c1d09e34438d8b828344ac6d5
  AndroidProfiler: 0
  AndroidFilterTouchesWhenObscured: 0
  AndroidEnableSustainedPerformanceMode: 0
  defaultScreenOrientation: 4
  targetDevice: 0
  useOnDemandResources: 0
  accelerometerFrequency: 60
  companyName: Unity Technologies
  productName: Unity ARKit Plugin
  defaultCursor: {fileID: 0}
  cursorHotspot: {x: 0, y: 0}
  m_SplashScreenBackgroundColor: {r: 0.13725491, g: 0.12156863, b: 0.1254902, a: 1}
  m_ShowUnitySplashScreen: 1
  m_ShowUnitySplashLogo: 1
  m_SplashScreenOverlayOpacity: 1
  m_SplashScreenAnimation: 1
  m_SplashScreenLogoStyle: 1
  m_SplashScreenDrawMode: 0
  m_SplashScreenBackgroundAnimationZoom: 1
  m_SplashScreenLogoAnimationZoom: 1
  m_SplashScreenBackgroundLandscapeAspect: 1
  m_SplashScreenBackgroundPortraitAspect: 1
  m_SplashScreenBackgroundLandscapeUvs:
    serializedVersion: 2
    x: 0
    y: 0
    width: 1
    height: 1
  m_SplashScreenBackgroundPortraitUvs:
    serializedVersion: 2
    x: 0
    y: 0
    width: 1
    height: 1
  m_SplashScreenLogos: []
  m_VirtualRealitySplashScreen: {fileID: 0}
  m_HolographicTrackingLossScreen: {fileID: 0}
  defaultScreenWidth: 1024
  defaultScreenHeight: 768
  defaultScreenWidthWeb: 600
  defaultScreenHeightWeb: 450
  m_StereoRenderingPath: 0
  m_ActiveColorSpace: 0
  m_MTRendering: 1
  m_StackTraceTypes: 010000000100000001000000010000000100000001000000
  iosShowActivityIndicatorOnLoading: -1
  androidShowActivityIndicatorOnLoading: -1
  iosAppInBackgroundBehavior: 0
  displayResolutionDialog: 0
  iosAllowHTTPDownload: 1
  allowedAutorotateToPortrait: 1
  allowedAutorotateToPortraitUpsideDown: 1
  allowedAutorotateToLandscapeRight: 1
  allowedAutorotateToLandscapeLeft: 1
  useOSAutorotation: 0
  use32BitDisplayBuffer: 0
  preserveFramebufferAlpha: 0
  disableDepthAndStencilBuffers: 0
  androidStartInFullscreen: 1
  androidRenderOutsideSafeArea: 0
  androidUseSwappy: 0
  androidBlitType: 0
  defaultIsNativeResolution: 1
  macRetinaSupport: 1
  runInBackground: 1
  captureSingleScreen: 0
  muteOtherAudioSources: 0
  Prepare IOS For Recording: 0
  Force IOS Speakers When Recording: 0
  deferSystemGesturesMode: 0
  hideHomeButton: 0
  submitAnalytics: 1
  usePlayerLog: 1
  bakeCollisionMeshes: 0
  forceSingleInstance: 0
  resizableWindow: 0
  useMacAppStoreValidation: 0
  macAppStoreCategory: public.app-category.games
  gpuSkinning: 0
  graphicsJobs: 0
  xboxPIXTextureCapture: 0
  xboxEnableAvatar: 0
  xboxEnableKinect: 0
  xboxEnableKinectAutoTracking: 0
  xboxEnableFitness: 0
  visibleInBackground: 0
  allowFullscreenSwitch: 1
  graphicsJobMode: 0
  fullscreenMode: 1
  xboxSpeechDB: 0
  xboxEnableHeadOrientation: 0
  xboxEnableGuest: 0
  xboxEnablePIXSampling: 0
  metalFramebufferOnly: 0
  xboxOneResolution: 0
  xboxOneSResolution: 0
  xboxOneXResolution: 3
  xboxOneMonoLoggingLevel: 0
  xboxOneLoggingLevel: 1
  xboxOneDisableEsram: 0
  xboxOnePresentImmediateThreshold: 0
  switchQueueCommandMemory: 0
  switchQueueControlMemory: 16384
  switchQueueComputeMemory: 262144
  switchNVNShaderPoolsGranularity: 33554432
  switchNVNDefaultPoolsGranularity: 16777216
  switchNVNOtherPoolsGranularity: 16777216
  vulkanEnableSetSRGBWrite: 0
  m_SupportedAspectRatios:
    4:3: 1
    5:4: 1
    16:10: 1
    16:9: 1
    Others: 1
  bundleVersion: 1.0
  preloadedAssets:
  - {fileID: 7200000, guid: 64707da4677d54e3cb413f90d6a592ef, type: 3}
  metroInputSource: 0
  wsaTransparentSwapchain: 0
  m_HolographicPauseOnTrackingLoss: 1
  xboxOneDisableKinectGpuReservation: 0
  xboxOneEnable7thCore: 0
  vrSettings:
    cardboard:
      depthFormat: 0
      enableTransitionView: 0
    daydream:
      depthFormat: 0
      useSustainedPerformanceMode: 0
      enableVideoLayer: 0
      useProtectedVideoMemory: 0
      minimumSupportedHeadTracking: 0
      maximumSupportedHeadTracking: 1
    hololens:
      depthFormat: 1
      depthBufferSharingEnabled: 0
    lumin:
      depthFormat: 0
      frameTiming: 2
      enableGLCache: 0
      glCacheMaxBlobSize: 524288
      glCacheMaxFileSize: 8388608
    oculus:
      sharedDepthBuffer: 0
      dashSupport: 0
      lowOverheadMode: 0
    enable360StereoCapture: 0
  isWsaHolographicRemotingEnabled: 0
  protectGraphicsMemory: 0
  enableFrameTimingStats: 0
  useHDRDisplay: 0
  m_ColorGamuts: 00000000
  targetPixelDensity: 30
  resolutionScalingMode: 0
  androidSupportedAspectRatio: 1
  androidMaxAspectRatio: 2.1
  applicationIdentifier:
    Android: com.Company.ProductName
    Standalone: unity.Unity Technologies.Native Rendering Plugin Example
    Tizen: com.Company.ProductName
    iPhone: ru.vikaolegova.arkitapp
    tvOS: com.Company.ProductName
  buildNumber:
    iPhone: 0
  AndroidBundleVersionCode: 1
  AndroidMinSdkVersion: 16
  AndroidTargetSdkVersion: 0
  AndroidPreferredInstallLocation: 1
  aotOptions: 
  stripEngineCode: 1
  iPhoneStrippingLevel: 0
  iPhoneScriptCallOptimization: 0
  ForceInternetPermission: 0
  ForceSDCardPermission: 0
  CreateWallpaper: 0
  APKExpansionFiles: 0
  keepLoadedShadersAlive: 1
  StripUnusedMeshComponents: 0
  VertexChannelCompressionMask: 4054
  iPhoneSdkVersion: 988
  iOSTargetOSVersionString: 12.2
  tvOSSdkVersion: 0
  tvOSRequireExtendedGameController: 0
  tvOSTargetOSVersionString: 9.0
  uIPrerenderedIcon: 0
  uIRequiresPersistentWiFi: 0
  uIRequiresFullScreen: 1
  uIStatusBarHidden: 1
  uIExitOnSuspend: 0
  uIStatusBarStyle: 0
  iPhoneSplashScreen: {fileID: 0}
  iPhoneHighResSplashScreen: {fileID: 0}
  iPhoneTallHighResSplashScreen: {fileID: 0}
  iPhone47inSplashScreen: {fileID: 0}
  iPhone55inPortraitSplashScreen: {fileID: 0}
  iPhone55inLandscapeSplashScreen: {fileID: 0}
  iPhone58inPortraitSplashScreen: {fileID: 0}
  iPhone58inLandscapeSplashScreen: {fileID: 0}
  iPadPortraitSplashScreen: {fileID: 0}
  iPadHighResPortraitSplashScreen: {fileID: 0}
  iPadLandscapeSplashScreen: {fileID: 0}
  iPadHighResLandscapeSplashScreen: {fileID: 0}
  iPhone65inPortraitSplashScreen: {fileID: 0}
  iPhone65inLandscapeSplashScreen: {fileID: 0}
  iPhone61inPortraitSplashScreen: {fileID: 0}
  iPhone61inLandscapeSplashScreen: {fileID: 0}
  appleTVSplashScreen: {fileID: 0}
  appleTVSplashScreen2x: {fileID: 0}
  tvOSSmallIconLayers: []
  tvOSSmallIconLayers2x: []
  tvOSLargeIconLayers: []
  tvOSLargeIconLayers2x: []
  tvOSTopShelfImageLayers: []
  tvOSTopShelfImageLayers2x: []
  tvOSTopShelfImageWideLayers: []
  tvOSTopShelfImageWideLayers2x: []
  iOSLaunchScreenType: 0
  iOSLaunchScreenPortrait: {fileID: 0}
  iOSLaunchScreenLandscape: {fileID: 0}
  iOSLaunchScreenBackgroundColor:
    serializedVersion: 2
    rgba: 3452816845
  iOSLaunchScreenFillPct: 100
  iOSLaunchScreenSize: 100
  iOSLaunchScreenCustomXibPath: 
  iOSLaunchScreeniPadType: 0
  iOSLaunchScreeniPadImage: {fileID: 0}
  iOSLaunchScreeniPadBackgroundColor:
    serializedVersion: 2
    rgba: 0
  iOSLaunchScreeniPadFillPct: 100
  iOSLaunchScreeniPadSize: 100
  iOSLaunchScreeniPadCustomXibPath: 
  iOSUseLaunchScreenStoryboard: 0
  iOSLaunchScreenCustomStoryboardPath: 
  iOSDeviceRequirements: []
  iOSURLSchemes: []
  iOSBackgroundModes: 0
  iOSMetalForceHardShadows: 1
  metalEditorSupport: 1
  metalAPIValidation: 1
  iOSRenderExtraFrameOnPause: 1
  appleDeveloperTeamID: 4L5MM27922
  iOSManualSigningProvisioningProfileID: 
  tvOSManualSigningProvisioningProfileID: 
  iOSManualSigningProvisioningProfileType: 0
  tvOSManualSigningProvisioningProfileType: 0
  appleEnableAutomaticSigning: 1
  iOSRequireARKit: 1
  iOSAutomaticallyDetectAndAddCapabilities: 1
  appleEnableProMotion: 1
  clonedFromGUID: 00000000000000000000000000000000
  templatePackageId: 
  templateDefaultScene: 
  AndroidTargetArchitectures: 5
  AndroidSplashScreenScale: 0
  androidSplashScreen: {fileID: 0}
  AndroidKeystoreName: '{inproject}: '
  AndroidKeyaliasName: 
  AndroidBuildApkPerCpuArchitecture: 0
  AndroidTVCompatibility: 1
  AndroidIsGame: 1
  AndroidEnableTango: 0
  androidEnableBanner: 1
  androidUseLowAccuracyLocation: 0
  androidUseCustomKeystore: 0
  m_AndroidBanners:
  - width: 320
    height: 180
    banner: {fileID: 0}
  androidGamepadSupportLevel: 0
  AndroidValidateAppBundleSize: 1
  AndroidAppBundleSizeToValidate: 100
  resolutionDialogBanner: {fileID: 0}
  m_BuildTargetIcons:
  - m_BuildTarget: 
    m_Icons:
    - serializedVersion: 2
      m_Icon: {fileID: 0}
      m_Width: 128
      m_Height: 128
      m_Kind: 0
  m_BuildTargetPlatformIcons: []
  m_BuildTargetBatching:
  - m_BuildTarget: iPhone
    m_StaticBatching: 1
    m_DynamicBatching: 1
  m_BuildTargetGraphicsAPIs:
  - m_BuildTarget: AndroidPlayer
    m_APIs: 08000000
    m_Automatic: 0
  - m_BuildTarget: WindowsStandaloneSupport
    m_APIs: 020000001200000011000000
    m_Automatic: 0
  - m_BuildTarget: MacStandaloneSupport
    m_APIs: 1000000011000000
    m_Automatic: 0
  - m_BuildTarget: LinuxStandaloneSupport
    m_APIs: 11000000
    m_Automatic: 1
  - m_BuildTarget: MetroSupport
    m_APIs: 02000000
    m_Automatic: 1
  - m_BuildTarget: iOSSupport
    m_APIs: 10000000
    m_Automatic: 0
  m_BuildTargetVRSettings:
  - m_BuildTarget: Android
    m_Enabled: 0
    m_Devices:
    - Oculus
  - m_BuildTarget: Windows Store Apps
    m_Enabled: 0
    m_Devices: []
  - m_BuildTarget: N3DS
    m_Enabled: 0
    m_Devices: []
  - m_BuildTarget: PS3
    m_Enabled: 0
    m_Devices: []
  - m_BuildTarget: PS4
    m_Enabled: 0
    m_Devices:
    - PlayStationVR
  - m_BuildTarget: PSM
    m_Enabled: 0
    m_Devices: []
  - m_BuildTarget: PSP2
    m_Enabled: 0
    m_Devices: []
  - m_BuildTarget: SamsungTV
    m_Enabled: 0
    m_Devices: []
  - m_BuildTarget: Standalone
    m_Enabled: 0
    m_Devices:
    - Oculus
  - m_BuildTarget: Tizen
    m_Enabled: 0
    m_Devices: []
  - m_BuildTarget: WebGL
    m_Enabled: 0
    m_Devices: []
  - m_BuildTarget: WebPlayer
    m_Enabled: 0
    m_Devices: []
  - m_BuildTarget: WiiU
    m_Enabled: 0
    m_Devices: []
  - m_BuildTarget: Xbox360
    m_Enabled: 0
    m_Devices: []
  - m_BuildTarget: XboxOne
    m_Enabled: 0
    m_Devices: []
  - m_BuildTarget: iPhone
    m_Enabled: 0
    m_Devices: []
  - m_BuildTarget: tvOS
    m_Enabled: 0
    m_Devices: []
  m_BuildTargetEnableVuforiaSettings: []
  openGLRequireES31: 0
  openGLRequireES31AEP: 0
  openGLRequireES32: 0
  m_TemplateCustomTags: {}
  mobileMTRendering:
    Android: 1
    iPhone: 1
    tvOS: 1
  m_BuildTargetGroupLightmapEncodingQuality:
  - m_BuildTarget: Standalone
    m_EncodingQuality: 1
  - m_BuildTarget: XboxOne
    m_EncodingQuality: 1
  - m_BuildTarget: PS4
    m_EncodingQuality: 1
  m_BuildTargetGroupLightmapSettings:
  - m_BuildTarget: iPhone
    m_TextureStreamingEnabled: 1
    m_TextureStreamingPriority: 0
  playModeTestRunnerEnabled: 0
  runPlayModeTestAsEditModeTest: 0
  actionOnDotNetUnhandledException: 1
  enableInternalProfiler: 0
  logObjCUncaughtExceptions: 1
  enableCrashReportAPI: 0
  cameraUsageDescription: AR BABY
  locationUsageDescription: 
  microphoneUsageDescription: 
  switchNetLibKey: 
  switchSocketMemoryPoolSize: 6144
  switchSocketAllocatorPoolSize: 128
  switchSocketConcurrencyLimit: 14
  switchScreenResolutionBehavior: 2
  switchUseCPUProfiler: 0
  switchApplicationID: 0x0005000C10000001
  switchNSODependencies: 
  switchTitleNames_0: 
  switchTitleNames_1: 
  switchTitleNames_2: 
  switchTitleNames_3: 
  switchTitleNames_4: 
  switchTitleNames_5: 
  switchTitleNames_6: 
  switchTitleNames_7: 
  switchTitleNames_8: 
  switchTitleNames_9: 
  switchTitleNames_10: 
  switchTitleNames_11: 
  switchTitleNames_12: 
  switchTitleNames_13: 
  switchTitleNames_14: 
  switchPublisherNames_0: 
  switchPublisherNames_1: 
  switchPublisherNames_2: 
  switchPublisherNames_3: 
  switchPublisherNames_4: 
  switchPublisherNames_5: 
  switchPublisherNames_6: 
  switchPublisherNames_7: 
  switchPublisherNames_8: 
  switchPublisherNames_9: 
  switchPublisherNames_10: 
  switchPublisherNames_11: 
  switchPublisherNames_12: 
  switchPublisherNames_13: 
  switchPublisherNames_14: 
  switchIcons_0: {fileID: 0}
  switchIcons_1: {fileID: 0}
  switchIcons_2: {fileID: 0}
  switchIcons_3: {fileID: 0}
  switchIcons_4: {fileID: 0}
  switchIcons_5: {fileID: 0}
  switchIcons_6: {fileID: 0}
  switchIcons_7: {fileID: 0}
  switchIcons_8: {fileID: 0}
  switchIcons_9: {fileID: 0}
  switchIcons_10: {fileID: 0}
  switchIcons_11: {fileID: 0}
  switchIcons_12: {fileID: 0}
  switchIcons_13: {fileID: 0}
  switchIcons_14: {fileID: 0}
  switchSmallIcons_0: {fileID: 0}
  switchSmallIcons_1: {fileID: 0}
  switchSmallIcons_2: {fileID: 0}
  switchSmallIcons_3: {fileID: 0}
  switchSmallIcons_4: {fileID: 0}
  switchSmallIcons_5: {fileID: 0}
  switchSmallIcons_6: {fileID: 0}
  switchSmallIcons_7: {fileID: 0}
  switchSmallIcons_8: {fileID: 0}
  switchSmallIcons_9: {fileID: 0}
  switchSmallIcons_10: {fileID: 0}
  switchSmallIcons_11: {fileID: 0}
  switchSmallIcons_12: {fileID: 0}
  switchSmallIcons_13: {fileID: 0}
  switchSmallIcons_14: {fileID: 0}
  switchManualHTML: 
  switchAccessibleURLs: 
  switchLegalInformation: 
  switchMainThreadStackSize: 1048576
  switchPresenceGroupId: 0x0005000C10000001
  switchLogoHandling: 0
  switchReleaseVersion: 0
  switchDisplayVersion: 1.0.0
  switchStartupUserAccount: 0
  switchTouchScreenUsage: 0
  switchSupportedLanguagesMask: 0
  switchLogoType: 0
  switchApplicationErrorCodeCategory: 
  switchUserAccountSaveDataSize: 0
  switchUserAccountSaveDataJournalSize: 0
  switchApplicationAttribute: 0
  switchCardSpecSize: 4
  switchCardSpecClock: 25
  switchRatingsMask: 0
  switchRatingsInt_0: 0
  switchRatingsInt_1: 0
  switchRatingsInt_2: 0
  switchRatingsInt_3: 0
  switchRatingsInt_4: 0
  switchRatingsInt_5: 0
  switchRatingsInt_6: 0
  switchRatingsInt_7: 0
  switchRatingsInt_8: 0
  switchRatingsInt_9: 0
  switchRatingsInt_10: 0
  switchRatingsInt_11: 0
  switchLocalCommunicationIds_0: 0x0005000C10000001
  switchLocalCommunicationIds_1: 
  switchLocalCommunicationIds_2: 
  switchLocalCommunicationIds_3: 
  switchLocalCommunicationIds_4: 
  switchLocalCommunicationIds_5: 
  switchLocalCommunicationIds_6: 
  switchLocalCommunicationIds_7: 
  switchParentalControl: 0
  switchAllowsScreenshot: 1
  switchAllowsVideoCapturing: 1
  switchAllowsRuntimeAddOnContentInstall: 0
  switchDataLossConfirmation: 0
  switchUserAccountLockEnabled: 0
  switchSystemResourceMemory: 16777216
  switchSupportedNpadStyles: 3
  switchNativeFsCacheSize: 32
  switchIsHoldTypeHorizontal: 0
  switchSupportedNpadCount: 8
  switchSocketConfigEnabled: 0
  switchTcpInitialSendBufferSize: 32
  switchTcpInitialReceiveBufferSize: 64
  switchTcpAutoSendBufferSizeMax: 256
  switchTcpAutoReceiveBufferSizeMax: 256
  switchUdpSendBufferSize: 9
  switchUdpReceiveBufferSize: 42
  switchSocketBufferEfficiency: 4
  switchSocketInitializeEnabled: 1
  switchNetworkInterfaceManagerInitializeEnabled: 1
  switchPlayerConnectionEnabled: 1
  ps4NPAgeRating: 12
  ps4NPTitleSecret: 
  ps4NPTrophyPackPath: 
  ps4ParentalLevel: 1
  ps4ContentID: ED1633-NPXX51362_00-0000000000000000
  ps4Category: 0
  ps4MasterVersion: 01.00
  ps4AppVersion: 01.00
  ps4AppType: 0
  ps4ParamSfxPath: 
  ps4VideoOutPixelFormat: 0
  ps4VideoOutInitialWidth: 1920
  ps4VideoOutBaseModeInitialWidth: 1920
  ps4VideoOutReprojectionRate: 120
  ps4PronunciationXMLPath: 
  ps4PronunciationSIGPath: 
  ps4BackgroundImagePath: 
  ps4StartupImagePath: 
  ps4StartupImagesFolder: 
  ps4IconImagesFolder: 
  ps4SaveDataImagePath: 
  ps4SdkOverride: 
  ps4BGMPath: 
  ps4ShareFilePath: 
  ps4ShareOverlayImagePath: 
  ps4PrivacyGuardImagePath: 
  ps4NPtitleDatPath: 
  ps4RemotePlayKeyAssignment: -1
  ps4RemotePlayKeyMappingDir: 
  ps4PlayTogetherPlayerCount: 0
  ps4EnterButtonAssignment: 1
  ps4ApplicationParam1: 0
  ps4ApplicationParam2: 0
  ps4ApplicationParam3: 0
  ps4ApplicationParam4: 0
  ps4DownloadDataSize: 0
  ps4GarlicHeapSize: 2048
  ps4ProGarlicHeapSize: 2560
  playerPrefsMaxSize: 32768
  ps4Passcode: eaoEiIgxIX4a2dREbbSqWy6yhKIDCdJO
  ps4pnSessions: 1
  ps4pnPresence: 1
  ps4pnFriends: 1
  ps4pnGameCustomData: 1
  playerPrefsSupport: 0
  enableApplicationExit: 0
  resetTempFolder: 1
  restrictedAudioUsageRights: 0
  ps4UseResolutionFallback: 0
  ps4ReprojectionSupport: 0
  ps4UseAudio3dBackend: 0
  ps4SocialScreenEnabled: 0
  ps4ScriptOptimizationLevel: 0
  ps4Audio3dVirtualSpeakerCount: 14
  ps4attribCpuUsage: 0
  ps4PatchPkgPath: 
  ps4PatchLatestPkgPath: 
  ps4PatchChangeinfoPath: 
  ps4PatchDayOne: 0
  ps4attribUserManagement: 0
  ps4attribMoveSupport: 0
  ps4attrib3DSupport: 0
  ps4attribShareSupport: 0
  ps4attribExclusiveVR: 0
  ps4disableAutoHideSplash: 0
  ps4videoRecordingFeaturesUsed: 0
  ps4contentSearchFeaturesUsed: 0
  ps4attribEyeToEyeDistanceSettingVR: 0
  ps4IncludedModules: []
  monoEnv: 
  splashScreenBackgroundSourceLandscape: {fileID: 0}
  splashScreenBackgroundSourcePortrait: {fileID: 0}
  blurSplashScreenBackground: 1
  spritePackerPolicy: 
  webGLMemorySize: 256
  webGLExceptionSupport: 1
  webGLNameFilesAsHashes: 0
  webGLDataCaching: 0
  webGLDebugSymbols: 0
  webGLEmscriptenArgs: 
  webGLModulesDirectory: 
  webGLTemplate: APPLICATION:Default
  webGLAnalyzeBuildSize: 0
  webGLUseEmbeddedResources: 0
  webGLCompressionFormat: 1
  webGLLinkerTarget: 0
  webGLThreadsSupport: 0
  webGLWasmStreaming: 0
  scriptingDefineSymbols: {}
  platformArchitecture:
    iPhone: 2
  scriptingBackend:
    Android: 0
    Standalone: 0
    WP8: 2
    WebGL: 1
    Windows Store Apps: 2
    iPhone: 1
  il2cppCompilerConfiguration: {}
  managedStrippingLevel: {}
  incrementalIl2cppBuild: {}
  allowUnsafeCode: 0
  additionalIl2CppArgs: 
  scriptingRuntimeVersion: 1
  gcIncremental: 0
  gcWBarrierValidation: 0
  apiCompatibilityLevelPerPlatform: {}
  m_RenderingPath: 1
  m_MobileRenderingPath: 1
  metroPackageName: UnityProject
  metroPackageVersion: 1.0.0.0
  metroCertificatePath: Assets\WSATestCertificate.pfx
  metroCertificatePassword: 
  metroCertificateSubject: Unity Technologies
  metroCertificateIssuer: Unity Technologies
  metroCertificateNotAfter: 806f443d01d7d201
  metroApplicationDescription: UnityProject
  wsaImages: {}
  metroTileShortName: Native Rendering Plugin Example
  metroTileShowName: 0
  metroMediumTileShowName: 0
  metroLargeTileShowName: 0
  metroWideTileShowName: 0
  metroSupportStreamingInstall: 0
  metroLastRequiredScene: 0
  metroDefaultTileSize: 1
  metroTileForegroundText: 1
  metroTileBackgroundColor: {r: 0, g: 0, b: 0, a: 1}
  metroSplashScreenBackgroundColor: {r: 0, g: 0, b: 0, a: 1}
  metroSplashScreenUseBackgroundColor: 0
  platformCapabilities:
    WindowsStoreApps:
      AllJoyn: False
      BlockedChatMessages: False
      Bluetooth: False
      Chat: False
      CodeGeneration: False
      EnterpriseAuthentication: False
      HumanInterfaceDevice: False
      InternetClient: False
      InternetClientServer: False
      Location: False
      Microphone: False
      MusicLibrary: False
      Objects3D: False
      PhoneCall: False
      PicturesLibrary: False
      PrivateNetworkClientServer: False
      Proximity: False
      RemovableStorage: False
      SharedUserCertificates: False
      UserAccountInformation: False
      VideosLibrary: False
      VoipCall: False
      WebCam: False
  metroTargetDeviceFamilies: {}
  metroFTAName: 
  metroFTAFileTypes: []
  metroProtocolName: 
  XboxOneProductId: 
  XboxOneUpdateKey: 
  XboxOneSandboxId: 
  XboxOneContentId: 
  XboxOneTitleId: 
  XboxOneSCId: 
  XboxOneGameOsOverridePath: 
  XboxOnePackagingOverridePath: 
  XboxOneAppManifestOverridePath: 
  XboxOneVersion: 1.0.0.0
  XboxOnePackageEncryption: 0
  XboxOnePackageUpdateGranularity: 2
  XboxOneDescription: 
  XboxOneLanguage:
  - enus
  XboxOneCapability: []
  XboxOneGameRating: {}
  XboxOneIsContentPackage: 0
  XboxOneEnableGPUVariability: 0
  XboxOneSockets: {}
  XboxOneSplashScreen: {fileID: 0}
  XboxOneAllowedProductIds: []
  XboxOnePersistentLocalStorageSize: 0
  XboxOneXTitleMemory: 8
  xboxOneScriptCompiler: 1
  XboxOneOverrideIdentityName: 
  vrEditorSettings:
    daydream:
      daydreamIconForeground: {fileID: 0}
      daydreamIconBackground: {fileID: 0}
  cloudServicesEnabled:
    Analytics: 0
    Build: 0
    Collab: 0
    ErrorHub: 0
    Game_Performance: 0
    Hub: 0
    Purchasing: 0
    UNet: 0
    Unity_Ads: 0
  luminIcon:
    m_Name: 
    m_ModelFolderPath: 
    m_PortalFolderPath: 
  luminCert:
    m_CertPath: 
    m_SignPackage: 1
  luminIsChannelApp: 0
  luminVersion:
    m_VersionCode: 1
    m_VersionName: 
  facebookSdkVersion: 7.9.4
  facebookAppId: 
  facebookCookies: 1
  facebookLogging: 1
  facebookStatus: 1
  facebookXfbml: 0
  facebookFrictionlessRequests: 1
  apiCompatibilityLevel: 6
  cloudProjectId: 
  framebufferDepthMemorylessMode: 2
  projectName: 
  organizationId: 
  cloudEnabled: 0
  enableNativePlatformBackendsForNewInputSystem: 0
  disableOldInputManagerSupport: 0
  legacyClampBlendShapeWeights: 0
